<svg width="16" height="16" viewBox="0 0 16 16" fill="none" xmlns="http://www.w3.org/2000/svg">
<path fill-rule="evenodd" clip-rule="evenodd" d="M6.5844 8.00007L1.29151 2.70718L2.70572 1.29297L7.99861 6.58586L13.2915 1.29297L14.7057 2.70718L9.41282 8.00007L14.7057 13.293L13.2915 14.7072L7.99861 9.41429L2.70572 14.7072L1.2915 13.293L6.5844 8.00007Z" fill="#0050F2"/>
</svg>
