<svg width="25" height="24" viewBox="0 0 25 24" fill="none" xmlns="http://www.w3.org/2000/svg">
<path d="M24.5 12C22.5415 7.3021 17.9062 4 12.5 4C7.09376 4 2.45852 7.3021 0.5 12C2.45852 16.6979 7.09424 20 12.5005 20C17.9067 20 22.5415 16.6979 24.5 12L22.2981 12C20.4779 15.5617 16.7739 18 12.5005 18C8.22711 18 4.52306 15.5617 2.70291 12C4.52306 8.43832 8.22662 6 12.5 6C16.7734 6 20.4779 8.43833 22.2981 12L24.5 12Z" fill="#0050F2"/>
<path fill-rule="evenodd" clip-rule="evenodd" d="M12.5002 16C14.7087 16 16.499 14.2091 16.499 12C16.499 9.79086 14.7087 8 12.5002 8C10.2918 8 8.50146 9.79086 8.50146 12C8.50146 14.2091 10.2918 16 12.5002 16ZM12.5002 14C13.6045 14 14.4996 13.1046 14.4996 12C14.4996 10.8954 13.6045 10 12.5002 10C11.396 10 10.5008 10.8954 10.5008 12C10.5008 13.1046 11.396 14 12.5002 14Z" fill="#0050F2"/>
</svg>
