<svg width="64" height="64" viewBox="0 0 64 64" fill="none" xmlns="http://www.w3.org/2000/svg">
<g clip-path="url(#clip0_2713_5570)">
<path d="M63.9999 64C53.9369 59.4833 43.0318 57.1481 32.0016 57.1481C20.9715 57.1481 10.0664 59.4833 0.00341797 64V0.0035553H63.9999V64Z" fill="#0F2DB3"/>
<path d="M7.58351 19.5314C6.75696 19.5348 5.96231 19.8508 5.35919 20.416C4.75607 20.9812 4.38915 21.7537 4.33213 22.5783H2.89577V18.063H14.0952C13.9147 20.7691 12.7714 23.3211 10.8722 25.2573C10.8722 25.2573 7.72217 28.9193 7.63862 30.521H9.46074C12.0668 30.521 12.3335 27.474 12.3335 27.474H13.8321V31.9982H2.38202C2.38202 31.9982 1.96071 28.5709 5.93738 24.404C7.23034 22.9736 8.2493 21.3177 8.94344 19.5189L7.58351 19.5314Z" fill="white"/>
<path d="M36.1046 31.9858V30.5085H35.7651C35.4688 30.5076 35.1849 30.3895 34.9755 30.18C34.766 29.9705 34.6479 29.6866 34.6469 29.3904V20.6584C34.6479 20.3621 34.766 20.0783 34.9755 19.8688C35.1849 19.6593 35.4688 19.5412 35.7651 19.5402H36.1046V18.063H28.6846V19.5402H29.0241C29.1718 19.5393 29.3182 19.5675 29.455 19.6232C29.5918 19.6789 29.7162 19.761 29.8213 19.8649C29.9263 19.9688 30.0098 20.0923 30.067 20.2285C30.1242 20.3646 30.154 20.5107 30.1547 20.6584V29.3904C30.154 29.5381 30.1242 29.6842 30.067 29.8203C30.0098 29.9565 29.9263 30.08 29.8213 30.1839C29.7162 30.2877 29.5918 30.3698 29.455 30.4256C29.3182 30.4813 29.1718 30.5095 29.0241 30.5085H28.6846V31.9858H36.1046Z" fill="white"/>
<path d="M27.147 32V27.474H25.6485C25.6485 27.474 25.3711 30.5227 22.7633 30.5227H21.2665V25.771H21.7998C21.9482 25.7708 22.0953 25.7999 22.2325 25.8566C22.3696 25.9134 22.4942 25.9967 22.5991 26.1017C22.704 26.2068 22.7871 26.3315 22.8437 26.4688C22.9002 26.6061 22.9291 26.7532 22.9286 26.9016V27.4651H24.4059V22.5925H22.9286V23.1578C22.9291 23.3062 22.9002 23.4532 22.8436 23.5904C22.7871 23.7275 22.704 23.8522 22.599 23.9571C22.4941 24.062 22.3695 24.1451 22.2323 24.2017C22.0952 24.2582 21.9482 24.2871 21.7998 24.2866H21.2665V19.5349H22.7633C25.3711 19.5349 25.6485 22.5819 25.6485 22.5819H27.147V18.0577H15.3433V19.5438H15.6828C15.9791 19.5447 16.2629 19.6628 16.4724 19.8723C16.6819 20.0818 16.8 20.3657 16.801 20.662V29.3939C16.8005 29.6903 16.6825 29.9745 16.4729 30.1841C16.2633 30.3937 15.9792 30.5116 15.6828 30.5121H15.3433V31.9911L27.147 32Z" fill="white"/>
<path d="M43.9052 19.5314C44.7312 19.5337 45.5255 19.8496 46.1274 20.4152C46.7294 20.9809 47.0941 21.754 47.1477 22.5783H48.5965V18.063H37.8913C37.8913 18.063 36.1989 20.2798 40.6218 25.2573C40.6218 25.2573 43.7612 28.9193 43.8447 30.521H42.0386C39.4326 30.521 39.1552 27.474 39.1552 27.474H37.6566V31.9982H48.4436C48.4436 31.9982 50.399 29.8846 45.5495 24.404C44.192 23.0228 43.1638 21.3529 42.5417 19.5189L43.9052 19.5314Z" fill="white"/>
<path d="M56.4253 19.5314C57.2509 19.5357 58.0442 19.8523 58.646 20.4175C59.2478 20.9827 59.6135 21.7546 59.6696 22.5783H61.1113V18.063H50.4168C50.4168 18.063 48.7226 20.2798 53.1473 25.2573C53.1473 25.2573 56.2867 28.9193 56.3702 30.521H54.5641C51.9562 30.521 51.6789 27.474 51.6789 27.474H50.1803V31.9982H60.9673C60.9673 31.9982 62.9227 29.8846 58.0732 24.404C56.7158 23.023 55.6881 21.353 55.0672 19.5189L56.4253 19.5314Z" fill="white"/>
</g>
<defs>
<clipPath id="clip0_2713_5570">
<rect width="64" height="64" fill="white"/>
</clipPath>
</defs>
</svg>
